…
#> # A tibble: 6 × 4
#>       country  year  cases population
#>         <chr> <int>  <int>      <int>
#> 1 Afghanistan  1999    745   19987071
#> 2 Afghanistan  2000   2666   20595360
#> 3      Brazil  1999  37737  172006362
#> 4      Brazil  2000  80488  174504898
#> 5       China  1999 212258 1272915272
#> 6       China  2000 213766 1280428583

table2

#> # A tibble: 12 × 4
#>       country  year       type     count
#>         <chr> <int>      <chr>     <int>
#> 1 Afghanistan  1999      cases       745
#> 2 Afghanistan  1999 population  19987071
#> 3 Afghanistan  2000      cases      2666
#> 4 Afghanistan  2000 population  20595360
#> 5      Brazil  1999      cases     37737
#> 6      Brazil  1999 population 172006362
#> # ... with 6 more rows
…
```
spread(data, key, value, fill = NA, convert = FALSE, drop = TRUE,
  sep = NULL)
```
The most important arguments are 
`data` a data frame

`key`, `value` Column names or positions.

Again, let us have a look at an example from the book R for Data Science.

```
table2
#> # A tibble: 12 × 4
#>       country  year       type     count
#>         <chr> <int>      <chr>     <int>
#> 1 Afghanistan  1999      cases       745
#> 2 Afghanistan  1999 population  19987071
#> 3 Afghanistan  2000      cases      2666
#> 4 Afghanistan  2000 population  20595360
#> 5      Brazil  1999      cases     37737
#> 6      Brazil  1999 population 172006362
#> # ... with 6 more rows
…
