Data Wrangling
…
    intersect, setdiff, setequal, union

> # From http://stackoverflow.com/questions/1181060
> stocks <- tibble(
+   time = as.Date('2009-01-01') + 0:9,
+   X = rnorm(10, 0, 1),
+   Y = rnorm(10, 0, 2),
+   Z = rnorm(10, 0, 4)
+ )

In this example X, Y, and Z are not different variables but values of a variable called stock. How can use separate to tidy the data?

> gather(stocks, stock, price, -time)

# A tibble: 30 x 3
   time       stock   price
   <date>     <chr>   <dbl>
 1 2009-01-01 X      1.35  
 2 2009-01-02 X     -1.92  
 3 2009-01-03 X     -1.40  
 4 2009-01-04 X      0.691 
 5 2009-01-05 X      0.789 
 6 2009-01-06 X     -0.0691
 7 2009-01-07 X      1.20  
 8 2009-01-08 X     -0.357 
 9 2009-01-09 X      1.29  
10 2009-01-10 X      1.98  
# ... with 20 more rows

> stocks %>% gather(stock, price, -time) # the same command using the pipe operator

# A tibble: 30 x 3
   time       stock   price
   <date>     <chr>   <dbl>
 1 2009-01-01 X      1.35  
 2 2009-01-02 X     -1.92  
 3 2009-01-03 X     -1.40  
 4 2009-01-04 X      0.691 
 5 2009-01-05 X      0.789 
 6 2009-01-06 X     -0.0691
 7 2009-01-07 X      1.20  
 8 2009-01-08 X     -0.357 
 9 2009-01-09 X      1.29  
10 2009-01-10 X      1.98  
# ... with 20 more rows
…
The subsequent arguments describe what to do with the data frame, using the variable names (without quotes).

The result is a new data frame.

Together these properties make it easy to chain together multiple simple steps to achieve a complex result.

Data: nycflights13

To explore the basic data manipulation verbs of dplyr, well use nycflights13::flights. This data frame contains all 336,776 flights that departed from New York City in 2013. The data comes from the US Bureau of Transportation Statistics, and is documented in ?flights.

> library(nycflights13)
> flights

# A tibble: 336,776 x 19
    year month   day dep_time sched_dep_time dep_delay arr_time
   <int> <int> <int>    <int>          <int>     <dbl>    <int>
 1  2013     1     1      517            515        2.      830
 2  2013     1     1      533            529        4.      850
 3  2013     1     1      542            540        2.      923
 4  2013     1     1      544            545       -1.     1004
 5  2013     1     1      554            600       -6.      812
 6  2013     1     1      554            558       -4.      740
 7  2013     1     1      555            600       -5.      913
 8  2013     1     1      557            600       -3.      709
 9  2013     1     1      557            600       -3.      838
10  2013     1     1      558            600       -2.      753
# ... with 336,766 more rows, and 12 more variables: sched_arr_time <int>,
#   arr_delay <dbl>, carrier <chr>, flight <int>, tailnum <chr>,
#   origin <chr>, dest <chr>, air_time <dbl>, distance <dbl>, hour <dbl>,
#   minute <dbl>, time_hour <dttm>

Filter rows with filter()

filter() allows you to subset observations based on their values. The first argument is the name of the data frame. The second and subsequent arguments are the expressions that filter the data frame. For example, we can select all flights on January 1st with:

> filter(flights, month == 1, day == 1)

# A tibble: 842 x 19
    year month   day dep_time sched_dep_time dep_delay arr_time
   <int> <int> <int>    <int>          <int>     <dbl>    <int>
 1  2013     1     1      517            515        2.      830
 2  2013     1     1      533            529        4.      850
 3  2013     1     1      542            540        2.      923
 4  2013     1     1      544            545       -1.     1004
 5  2013     1     1      554            600       -6.      812
 6  2013     1     1      554            558       -4.      740
 7  2013     1     1      555            600       -5.      913
 8  2013     1     1      557            600       -3.      709
 9  2013     1     1      557            600       -3.      838
10  2013     1     1      558            600       -2.      753
# ... with 832 more rows, and 12 more variables: sched_arr_time <int>,
#   arr_delay <dbl>, carrier <chr>, flight <int>, tailnum <chr>,
#   origin <chr>, dest <chr>, air_time <dbl>, distance <dbl>, hour <dbl>,
#   minute <dbl>, time_hour <dttm>
…
Exercise 2. Another useful dplyr filtering helper is between(). What does it do? Can you use it to simplify the code needed to answer the previous challenges?

> filter(flights, between(month, 6, 8))

Exercise 3. How many flights have a missing dep_time? What other variables are missing? What might these rows represent?

> filter(flights, is.na(dep_time))

Arrange rows with arrange()

arrange() works similarly to filter() except that instead of selecting rows, it changes their order. It takes a data frame and a set of column names (or more complicated expressions) to order by. If you provide more than one column name, each additional column will be used to break ties in the values of preceding columns:

> arrange(flights, year, month, day)

# A tibble: 336,776 x 19
    year month   day dep_time sched_dep_time dep_delay arr_time
   <int> <int> <int>    <int>          <int>     <dbl>    <int>
 1  2013     1     1      517            515        2.      830
 2  2013     1     1      533            529        4.      850
 3  2013     1     1      542            540        2.      923
 4  2013     1     1      544            545       -1.     1004
 5  2013     1     1      554            600       -6.      812
 6  2013     1     1      554            558       -4.      740
 7  2013     1     1      555            600       -5.      913
 8  2013     1     1      557            600       -3.      709
 9  2013     1     1      557            600       -3.      838
10  2013     1     1      558            600       -2.      753
# ... with 336,766 more rows, and 12 more variables: sched_arr_time <int>,
#   arr_delay <dbl>, carrier <chr>, flight <int>, tailnum <chr>,
#   origin <chr>, dest <chr>, air_time <dbl>, distance <dbl>, hour <dbl>,
#   minute <dbl>, time_hour <dttm>

Use desc() to re-order by a column in descending order:

> arrange(flights, desc(arr_delay))

# A tibble: 336,776 x 19
    year month   day dep_time sched_dep_time dep_delay arr_time
   <int> <int> <int>    <int>          <int>     <dbl>    <int>
 1  2013     1     9      641            900     1301.     1242
 2  2013     6    15     1432           1935     1137.     1607
 3  2013     1    10     1121           1635     1126.     1239
 4  2013     9    20     1139           1845     1014.     1457
 5  2013     7    22      845           1600     1005.     1044
 6  2013     4    10     1100           1900      960.     1342
 7  2013     3    17     2321            810      911.      135
 8  2013     7    22     2257            759      898.      121
 9  2013    12     5      756           1700      896.     1058
10  2013     5     3     1133           2055      878.     1250
# ... with 336,766 more rows, and 12 more variables: sched_arr_time <int>,
#   arr_delay <dbl>, carrier <chr>, flight <int>, tailnum <chr>,
#   origin <chr>, dest <chr>, air_time <dbl>, distance <dbl>, hour <dbl>,
#   minute <dbl>, time_hour <dttm>
…
Exercise 3. Sort flights to find the fastest flights.

> arrange(flights, air_time/distance)

Exercise 4. Which flights travelled the longest? Which travelled the shortest?

> arrange(flights, desc(air_time))
> arrange(flights, air_time)

Select columns with select()

Its not uncommon to get datasets with hundreds or even thousands of variables. In this case, the first challenge is often narrowing in on the variables youre actually interested in. select() allows you to rapidly zoom in on a useful subset using operations based on the names of the variables.

> select(flights, year, month, day)
# A tibble: 336,776 x 3
    year month   day
   <int> <int> <int>
 1  2013     1     1
 2  2013     1     1
 3  2013     1     1
 4  2013     1     1
 5  2013     1     1
 6  2013     1     1
 7  2013     1     1
 8  2013     1     1
 9  2013     1     1
10  2013     1     1
# ... with 336,766 more rows
> select(flights, year:day)
# A tibble: 336,776 x 3
    year month   day
   <int> <int> <int>
 1  2013     1     1
 2  2013     1     1
 3  2013     1     1
 4  2013     1     1
 5  2013     1     1
 6  2013     1     1
 7  2013     1     1
 8  2013     1     1
 9  2013     1     1
10  2013     1     1
# ... with 336,766 more rows
> select(flights, -(year:day))
# A tibble: 336,776 x 16
   dep_time sched_dep_time dep_delay arr_time sched_arr_time arr_delay
      <int>          <int>     <dbl>    <int>          <int>     <dbl>
 1      517            515        2.      830            819       11.
 2      533            529        4.      850            830       20.
 3      542            540        2.      923            850       33.
 4      544            545       -1.     1004           1022      -18.
 5      554            600       -6.      812            837      -25.
 6      554            558       -4.      740            728       12.
 7      555            600       -5.      913            854       19.
 8      557            600       -3.      709            723      -14.
 9      557            600       -3.      838            846       -8.
10      558            600       -2.      753            745        8.
# ... with 336,766 more rows, and 10 more variables: carrier <chr>,
#   flight <int>, tailnum <chr>, origin <chr>, dest <chr>, air_time <dbl>,
#   distance <dbl>, hour <dbl>, minute <dbl>, time_hour <dttm>
…
contains("ijk"): matches names that contain ijk.

matches("(.)\\1"): selects variables that match a regular expression. This one matches any variables that contain repeated characters. Youll learn more about regular expressions in strings.

num_range("x", 1:3) matches x1, x2 and x3.

See ?select for more details.

select() can be used to rename variables, but its rarely useful because it drops all of the variables not explicitly mentioned. Instead, use rename(), which is a variant of select() that keeps all the variables that arent explicitly mentioned:

Another option is to use select() in conjunction with the everything() helper. This is useful if you have a handful of variables youd like to move to the start of the data frame.

> select(flights, time_hour, air_time, everything())

# A tibble: 336,776 x 19
   time_hour           air_time  year month   day dep_time sched_dep_time
   <dttm>                 <dbl> <int> <int> <int>    <int>          <int>
 1 2013-01-01 05:00:00     227.  2013     1     1      517            515
 2 2013-01-01 05:00:00     227.  2013     1     1      533            529
 3 2013-01-01 05:00:00     160.  2013     1     1      542            540
 4 2013-01-01 05:00:00     183.  2013     1     1      544            545
 5 2013-01-01 06:00:00     116.  2013     1     1      554            600
 6 2013-01-01 05:00:00     150.  2013     1     1      554            558
 7 2013-01-01 06:00:00     158.  2013     1     1      555            600
 8 2013-01-01 06:00:00      53.  2013     1     1      557            600
 9 2013-01-01 06:00:00     140.  2013     1     1      557            600
10 2013-01-01 06:00:00     138.  2013     1     1      558            600
# ... with 336,766 more rows, and 12 more variables: dep_delay <dbl>,
#   arr_time <int>, sched_arr_time <int>, arr_delay <dbl>, carrier <chr>,
#   flight <int>, tailnum <chr>, origin <chr>, dest <chr>, distance <dbl>,
#   hour <dbl>, minute <dbl>

Exercise 1. Brainstorm as many ways as possible to select dep_time, dep_delay, arr_time, and arr_delay from flights.

> flights[,c(4,6,7,9)]
> select(flights, dep_time, dep_delay, arr_time, arr_delay)
> select(flights, starts_with("dep"), starts_with("arr"))

Exercise 2. What happens if you include the name of a variable multiple times in a select() call?

> select(flights, dep_time, dep_time)

# A tibble: 336,776 x 1
   dep_time
      <int>
 1      517
 2      533
 3      542
 4      544
 5      554
 6      554
 7      555
 8      557
 9      557
10      558
# ... with 336,766 more rows

Exercise 3. What does the one_of() function do? Why might it be helpful in conjunction with this vector?

vars <- c("year", "month", "day", "dep_delay", "arr_delay")

> vars <- c("year", "month", "day", "dep_delay", "arr_delay") 
> select(flights, one_of(vars))

# A tibble: 336,776 x 5
    year month   day dep_delay arr_delay
   <int> <int> <int>     <dbl>     <dbl>
 1  2013     1     1        2.       11.
 2  2013     1     1        4.       20.
 3  2013     1     1        2.       33.
 4  2013     1     1       -1.      -18.
 5  2013     1     1       -6.      -25.
 6  2013     1     1       -4.       12.
 7  2013     1     1       -5.       19.
 8  2013     1     1       -3.      -14.
 9  2013     1     1       -3.       -8.
10  2013     1     1       -2.        8.
# ... with 336,766 more rows
…
Besides selecting sets of existing columns, its often useful to add new columns that are functions of existing columns. Thats the job of mutate().

> flights_sml <- select(flights, 
+   year:day, 
+   ends_with("delay"), 
+   distance, 
+   air_time
+ )
> 
> mutate(flights_sml,
+   gain = arr_delay - dep_delay,
+   speed = distance / air_time * 60
+ )

# A tibble: 336,776 x 9
    year month   day dep_delay arr_delay distance air_time  gain speed
   <int> <int> <int>     <dbl>     <dbl>    <dbl>    <dbl> <dbl> <dbl>
 1  2013     1     1        2.       11.    1400.     227.    9.  370.
 2  2013     1     1        4.       20.    1416.     227.   16.  374.
 3  2013     1     1        2.       33.    1089.     160.   31.  408.
 4  2013     1     1       -1.      -18.    1576.     183.  -17.  517.
 5  2013     1     1       -6.      -25.     762.     116.  -19.  394.
 6  2013     1     1       -4.       12.     719.     150.   16.  288.
 7  2013     1     1       -5.       19.    1065.     158.   24.  404.
 8  2013     1     1       -3.      -14.     229.      53.  -11.  259.
 9  2013     1     1       -3.       -8.     944.     140.   -5.  405.
10  2013     1     1       -2.        8.     733.     138.   10.  319.
# ... with 336,766 more rows

Note that you can refer to columns that youve just created:

> mutate(flights_sml,
+   gain = arr_delay - dep_delay,
+   hours = air_time / 60,
+   gain_per_hour = gain / hours
+ )

# A tibble: 336,776 x 10
    year month   day dep_delay arr_delay distance air_time  gain hours
   <int> <int> <int>     <dbl>     <dbl>    <dbl>    <dbl> <dbl> <dbl>
 1  2013     1     1        2.       11.    1400.     227.    9. 3.78 
 2  2013     1     1        4.       20.    1416.     227.   16. 3.78 
 3  2013     1     1        2.       33.    1089.     160.   31. 2.67 
 4  2013     1     1       -1.      -18.    1576.     183.  -17. 3.05 
 5  2013     1     1       -6.      -25.     762.     116.  -19. 1.93 
 6  2013     1     1       -4.       12.     719.     150.   16. 2.50 
 7  2013     1     1       -5.       19.    1065.     158.   24. 2.63 
 8  2013     1     1       -3.      -14.     229.      53.  -11. 0.883
 9  2013     1     1       -3.       -8.     944.     140.   -5. 2.33 
10  2013     1     1       -2.        8.     733.     138.   10. 2.30 
# ... with 336,766 more rows, and 1 more variable: gain_per_hour <dbl>

If you only want to keep the new variables, use transmute():

> transmute(flights,
+   gain = arr_delay - dep_delay,
+   hours = air_time / 60,
+   gain_per_hour = gain / hours
+ )

# A tibble: 336,776 x 3
    gain hours gain_per_hour
   <dbl> <dbl>         <dbl>
 1    9. 3.78           2.38
 2   16. 3.78           4.23
 3   31. 2.67          11.6 
 4  -17. 3.05          -5.57
 5  -19. 1.93          -9.83
 6   16. 2.50           6.40
 7   24. 2.63           9.11
 8  -11. 0.883        -12.5 
 9   -5. 2.33          -2.14
10   10. 2.30           4.35
# ... with 336,766 more rows

There are many functions for creating new variables that you can use with mutate(). The key property is that the function must be vectorised: it must take a vector of values as input, return a vector with the same number of values as output.

Exercise 1. Currently dep_time and sched_dep_time are convenient to look at, but hard to compute with because theyre not really continuous numbers. Convert them to a more convenient representation of number of minutes since midnight.

> select(flights, dep_time, sched_dep_time)

# A tibble: 336,776 x 2
   dep_time sched_dep_time
      <int>          <int>
 1      517            515
 2      533            529
 3      542            540
 4      544            545
 5      554            600
 6      554            558
 7      555            600
 8      557            600
 9      557            600
10      558            600
# ... with 336,766 more rows

> flights_ext <- mutate(flights, 
+                       dep_time_min = floor(dep_time / 100)*60 + dep_time %% 100,
+                       sched_dep_time_min = floor(sched_dep_time / 100)*60 + sched_dep_time %% 100)
> select(flights_ext, dep_time, sched_dep_time, dep_time_min, sched_dep_time_min)

# A tibble: 336,776 x 4
   dep_time sched_dep_time dep_time_min sched_dep_time_min
      <int>          <int>        <dbl>              <dbl>
 1      517            515         317.               315.
 2      533            529         333.               329.
 3      542            540         342.               340.
 4      544            545         344.               345.
 5      554            600         354.               360.
 6      554            558         354.               358.
 7      555            600         355.               360.
 8      557            600         357.               360.
 9      557            600         357.               360.
10      558            600         358.               360.
# ... with 336,766 more rows

Exercise 2. Compare air_time with arr_time - dep_time. What do you expect to see? What do you see? What do you need to do to fix it?

> select(flights, air_time, arr_time, dep_time)

# A tibble: 336,776 x 3
   air_time arr_time dep_time
      <dbl>    <int>    <int>
 1     227.      830      517
 2     227.      850      533
 3     160.      923      542
 4     183.     1004      544
 5     116.      812      554
 6     150.      740      554
 7     158.      913      555
 8      53.      709      557
 9     140.      838      557
10     138.      753      558
# ... with 336,766 more rows

> flights_ext <- mutate(flights_ext, arr_time_min = floor(arr_time / 100)*60 + arr_time %% 100,
+                                air_time_min = arr_time_min - dep_time_min)
> select(flights_ext, arr_time_min, dep_time_min, air_time_min)

# A tibble: 336,776 x 3
   arr_time_min dep_time_min air_time_min
          <dbl>        <dbl>        <dbl>
 1         510.         317.         193.
 2         530.         333.         197.
 3         563.         342.         221.
 4         604.         344.         260.
 5         492.         354.         138.
 6         460.         354.         106.
 7         553.         355.         198.
 8         429.         357.          72.
 9         518.         357.         161.
10         473.         358.         115.
# ... with 336,766 more rows

Exercise 3. Compare dep_time, sched_dep_time, and dep_delay. How would you expect those three numbers to be related?

> select(flights, dep_time, sched_dep_time, dep_delay)
# A tibble: 336,776 x 3
   dep_time sched_dep_time dep_delay
      <int>          <int>     <dbl>
 1      517            515        2.
 2      533            529        4.
 3      542            540        2.
 4      544            545       -1.
 5      554            600       -6.
 6      554            558       -4.
 7      555            600       -5.
 8      557            600       -3.
 9      557            600       -3.
10      558            600       -2.
# ... with 336,766 more rows
…
